"apr lambda samples"
387.12269319205933
300.5873644124885
1468.894011174438
980.4214264143452
267.64096175368434
458.184390481807
420.58150621070826
263.0288439512767
451.3862252550614
266.9412280356673
267.7008341782235
330.71798262410834
455.7407922097952
1077.1463320954704
1119.7733321870421
1137.6949685099669
262.8777271979462
1520.692440262349
265.55041598767406
442.27307185286776
268.21104498579706
556.2664570603667
272.86903769104305
542.8783204887641
275.66233282114166
363.74463570978236
268.95413541996464
312.93297999253105
269.03415284233586
263.79623768195785
1611.6341141584871
692.6045443149571
263.2894979869756
432.263825243308
266.03246852807723
267.15253846879517
271.6296493836429
949.6381323186423
263.148549885981
283.26475558832755
1281.2724865290643
279.45659155548077
351.67482026424665
266.58071258775544
269.2987043824916
278.62559963525814
681.2357714012422
264.6693993917979
1116.1901550020493
375.290890929789
829.6211572486287
265.74691219468866
265.3891621015599
281.10750605013453
267.36421602441607
287.3941258331744
278.13534191116827
404.22143808181335
360.05944496462917
1425.9894908274832
511.3527432791648
273.74884151074957
345.1176281374796
265.39288759326143
270.2282403452879
264.2394143816519
975.2124039825645
269.4155096514991
268.9514293059817
315.82840228997185
1372.656064482567
266.2046853632399
425.6943899200586
445.70110099763934
263.5225918750912
751.1039884789731
665.4842568109755
264.2570550889593
356.2304701597734
1054.1699137398618
559.5828841435455
522.7610506660338
319.76549616101306
278.73693806701453
365.64703621449485
263.5565875498956
544.4608684141068
302.67196364871774
562.5109052478111
689.2489922496114
266.073021713266
387.9187001511686
1010.2512640737713
275.4671243235008
1571.225803682264
1345.3355261923675
265.701402568988
417.1507436133409
264.83263240940846
1435.2723004426828
