lambda pdf
152.18039749455107 0.030669411771650792
160.15178739083 0.007102044792788355
168.540728153874 0.005352296566334772
177.36909159381952 0.0036485743583356497
186.65989519218553 0.0034669703359909293
196.4373621135001 0.001896778904892825
206.726984360408 0.001422922652292733
217.5555892369182 0.001261958269717612
228.95140929307405 0.0010278390853145356
240.94415593340915 0.0010580694105131229
253.56509688110106 0.0010827439515051001
266.84713769979044 0.0008083833127945288
280.8249075856079 0.0006983153344328819
295.5348496530907 0.0008626246323717698
311.0153159503831 0.0009457942866502166
327.3066674514439 0.0005392310114126724
344.45137928596625 0.0005693237160618798
362.49415148136535 0.0008655779452720151
381.4820255055623 0.000616871022422092
401.4645069144176 0.0008304031140894914
422.49369442358244 0.0004641592095836514
444.6244157412889 0.00035284493125420916
467.9143705162194 0.0005448339634317923
492.4242807731578 0.000517715415321862
518.218049228639 0.0006811569207003219
545.3629258993577 0.000539377531762891
573.9296834377254 0.0005466992767005171
603.9928016517114 0.0005519558773324061
635.630661690052 0.0003702231835128526
668.9257503991123 0.0002931630889388261
703.9648753842021 0.00030642831869383985
740.8393913360599 0.00021176448396358598
779.6454382125846 0.0002766831723892939
820.4841918968114 0.0003585157542237989
863.4621279846509 0.00024982540193972344
908.691299390139 0.0003021334914784336
956.2896284919827 0.00022557472836306876
1006.3812145830902 0.0001948608901041197
1059.096657424668 0.00025922664662959675
1114.5733977484674 0.00035189129698209924
1172.9560755949458 0.0003009386438318739
1234.396907421603 0.00019063982232490973
1299.0560829646997 0.00024153456261586783
1367.1021828890684 0.00020082337545583112
1438.712618314912 0.00023171922765826244
1514.0740933675395 0.0002460898355119216
1593.3830919560064 0.00020922612924734917
1676.8463900498004 0.00011694830273147596
1764.6815947891841 0.00012224005385474013
