0.13585746102449903, 148.62840500256948
0.19265033407572396, 148.76820284392625
0.2527839643652562, 148.91622408771582
0.3262806236080179, 149.09713894123638
0.4164810690423164, 153.01147849922882
0.5066815144766148, 153.23351036491317
0.566815144766147, 153.38153160870274
0.633630289532294, 157.23830734966577
0.6837416481069043, 157.36165838615716
0.7639198218262808, 164.94363542915858
0.834075723830735, 168.80863457255418
0.8908685968819601, 176.3330477985262
0.9443207126948776, 183.84923762206563
1.0111358574610247, 191.3983210553365
1.071269487750557, 206.31557306835657
1.1447661469933186, 221.26571869110808
1.2048997772828507, 239.875278396436
1.2616926503340757, 258.47661469933155
1.3184855233853006, 277.07795100222665
1.3719376391982183, 303.0556792873049
1.4220489977728288, 329.0251841699501
1.4755011135857463, 355.00291245502785
0.46659242761692654, 153.13482953571997
0.36971046770601346, 152.89635086517023
0.7238307349665924, 161.15264690765753
1.111358574610245, 213.79886928216501
1.5055679287305124, 369.8461538461536
1.5456570155902007, 392.098680829193
1.579064587973274, 410.6424533150589
1.6057906458797326, 429.1697789960592
1.6358574610244991, 451.3976357718002
1.6659242761692652, 473.62549254754117
1.7026726057906458, 503.254411512763
1.7360801781737196, 532.8751070755523
1.7761692650334076, 569.8968648278221
1.8095768374164813, 603.209868082919
1.8496659242761693, 643.9239335274965
1.8864142538975504, 684.6297755696417
1.9198218262806237, 725.3273942093538
1.9565701559020043, 769.7255439438065
1.9899777282850781, 814.1154702758263
2.020044543429844, 854.8048655131058
2.0534521158129175, 902.8870995374333
2.0801781737193763, 943.5682713722799
2.1069042316258355, 984.2494432071267
2.133630289532294, 1028.622922734281
2.160356347438753, 1072.9964022614354
2.1837416481069045, 1117.361658386157
2.210467706013363, 1161.7351379133115
2.237193763919822, 1209.8009251327735
2.2605790645879735, 1257.8584889498027
2.287305122494432, 1309.6165838615725
2.3173719376391984, 1372.459825252698
2.344097995545657, 1427.9102278567755
2.370824053452116, 1490.7452458454684
2.3942093541202674, 1542.4951173548054
2.420935412026726, 1601.6378276511905
2.4376391982182626, 1645.9866369710467
